^D:\SKILLBOX\PRACTICAL 19\CANIMAL.CPP|D:\SKILLBOX\PRACTICAL 19\PRACTICAL 19.CPP
D:\SKILLBOX\PRACTICAL 19\X64\DEBUG\VC143.PDB
D:\SKILLBOX\PRACTICAL 19\X64\DEBUG\VC143.IDB
D:\SKILLBOX\PRACTICAL 19\X64\DEBUG\PRACTICAL 19.OBJ
D:\SKILLBOX\PRACTICAL 19\X64\DEBUG\CANIMAL.OBJ
^D:\SKILLBOX\PRACTICAL 19\CANIMAL.CPP
D:\SKILLBOX\PRACTICAL 19\X64\DEBUG\VC143.PDB
^D:\SKILLBOX\PRACTICAL 19\PRACTICAL 19.CPP
D:\SKILLBOX\PRACTICAL 19\X64\DEBUG\VC143.PDB
D:\SKILLBOX\PRACTICAL 19\X64\DEBUG\VC143.IDB
D:\SKILLBOX\PRACTICAL 19\X64\DEBUG\PRACTICAL 19.OBJ
